info/mubasher/infoservices/InfoServicesApplication.class
info/mubasher/infoservices/model/Narrative.class
info/mubasher/infoservices/controllers/NarrativeController.class
info/mubasher/infoservices/services/NarrativeServiceImpl.class
info/mubasher/infoservices/bootstrap/BootStrapData.class
info/mubasher/infoservices/services/NarrativeService.class
info/mubasher/infoservices/repositories/NarrativeRepository.class
